.include tdz10b.lib

V1 1 0 SIN (0 20 4 0 0 0)
R1 1 2 10k
X1 2 0 DI_DDZ9697
.tran 0.01 3 1

.control

run

set set gnuplot_terminal=png/quit

* ZENER PLOT
let V1 = V(1)
let V2 = V(2)
let V3 = V(2)

gnuplot ../images/exp-zener-input V1
+ title 'Zener Input voltage'
+ xlabel 'Time(s)'
+ ylabel 'Voltage(V)'

gnuplot ../images/exp-zener-output V2
+ title 'Zener Output voltage'
+ xlabel 'Time(s)'
+ ylabel 'Voltage(V)'

.endc


.end
