HEATER

V1 1 0 DC 0 PULSE(0 37 0 1n 1n 9000 9000 0)
B1 5 0 V = V(1)*V(1)/20.947
E2 4 0 5 0 0.062
E1 3 0 4 0 0.000239
G1 0 2 3 0 1
R1 2 0 2423.3
C1 2 0 0.51

.tran 1 9000 uic

.control
run
set set gnuplot_terminal=png/quit
let V1 = V(1)
let V2 = V(2)

gnuplot ../images/exp-heater-input V1 V2
+ title 'System convergence'
+ xlabel 'Time(s)'
+ ylabel 'Voltage(V)'

.endc

.end
