
* OPERATIONAL AMPLIFIER AS COMPARATOR
*
*			n4-(+VCC)
*		    __  |
*		   |  \\|
*		n1-|+ 	 \\_
*		   |TL081   \\--n6--R1--n3
*		   |	   _//		|
*		n2-|-	 //		D1
*		   |__//|		|
*	      	        |		n0
*			n5-(-VCC)
*
*
*
*

.include ../tl081/tl081.lib
.include ../tdz10b/tdz10b.lib

V1 4 0 15
V2 5 0 -15
*R1 6 3 10K
X1 0 3 DI_DDZ9697 * ANY 10 V ZENER DIODE
X2 1 2 4 5 3 TL081
VS1 2 0 SIN(3 5 6)
VS2 1 0 -2


.TRAN .01 2 1

.control

run

let IN1 = V(1)
let IN2 = V(2)
let OUT = V(3)

set set gnuplot_terminal=xfce4-terminal

*gnuplot ../images/exp-comparator IN1 IN2 OUT
gnuplot new IN1 IN2 OUT
+ title 'Comparator inputs and output'
+ xlabel 'Time(s)'
+ ylabel 'Voltage(V)'

.endc

.end
