*PROPORTIONAL INTEGRAL

**************************************************************************
* Author: Allan Ribeiro
*

**************************************************************************
* 2 - Proportional integral control
**************************************************************************
*
*		.-------R2------.		
*		|	n3(+Vcc)|
*		|   __  |	|	.----R4-n7-C1---.
*		|  |  \\|       |	|   __  n3(+Vcc)|
*    Vin-n1-R1--n2-|-	 \\_    |	|  |  \\|       |
*		   |TL081   \\--n5--R3--n6-|-    \\_    |
*		   |	   _//		   |TL081   \\--n8-Vout
*	      GND--|+	 //		   |       _//
*		   |__//|	      GND--|+    //
*	      	        |		   |__//|
*			n4(-Vcc)		n4(-Vcc)
*
*
*Remember to invert Gain and integrator
*
.include ../tl081/tl081.lib

* Input, output
V1 3 0 15
V2 4 0 -15
R1 1 2 100k
R2 2 5 16k
R3 5 6 100k
R4 6 7 10M
C1 7 8 100m
X1 0 2 3 4 5 TL081
X2 0 6 3 4 8 TL081
VS 1 0 2.5

.tran 0.01 2 1
.control
run

set set gnuplot_terminal=png/quit

let V1 = V(1)

let V2 = V(8)

gnuplot ../images/exp-picontrol-input V1
+ title 'Proportional-Integral Control Input'
+ xlabel 'Time(s)'
+ ylabel 'Voltage(V)'

gnuplot ../images/exp-picontrol-output V2
+ title 'Proportional-Integral Control Output'
+ xlabel 'Time(s)'
+ ylabel 'Voltage(V)'

.endc
.end
